address,lat,lon
170 LINCOLN ST,44.0922440994496,-70.2186367216333
317 LINCOLN ST,44.0872498852909,-70.2150317613353
280 LISBON ,44.0314649,-70.1044975
64 CEDAR ST,44.0912516458333,-70.2189643541667
187 LINCOLN ST,44.0917207328976,-70.2185676562348
120 CEDAR ST,44.0923710519277,-70.215606150597
112 HINES ALLEY,44.094349,-70.219525
110 HINES ALLEY,44.094349,-70.219525
121 HINES ALLEY,44.094349,-70.219525
179 LINCOLN ST,44.0918873273379,-70.2186732615557
175 LINCOLN ST,44.091972068704,-70.2187236870239
174 LINCOLN ST,44.0921427455962,-70.2185732362526
58 CEDAR ST,44.0912485833333,-70.2189734166667
197 LINCOLN ST,44.0915124898471,-70.2184356495837
158 LINCOLN ST,44.0925496739862,-70.2188247170606
152 LINCOLN ST,44.0927024383734,-70.2189187480368
148 LINCOLN ST,44.0928036255823,-70.2189824986912
144 LINCOLN ST,44.0929048127911,-70.2190462493456
84 HINES ALLEY,44.094349,-70.219525
177 LINCOLN ST,44.091929444076,-70.2186988923057
86 LINCOLN ST,44.094129,-70.219809
100 LINCOLN ST,44.0937247378486,-70.2195586796016
31 CHESTNUT ST,44.0934758125,-70.2183335625
301 LISBON,44.0314649,-70.1044975
309 LISBON,44.0314649,-70.1044975
313 LISBON,44.0314649,-70.1044975
317 LISBON,44.0314649,-70.1044975
345 LISBON,44.0314649,-70.1044975
353 LISBON,44.0314649,-70.1044975
353 LINCOLN ST,44.085608,-70.212595
396 LINCOLN ST,44.084441,-70.210697
376 LINCOLN ST,44.0847226200955,-70.2110490251194
346 LINCOLN ST,44.0851277363012,-70.2115901769772
312 LINCOLN ST,44.0855719713613,-70.212214652207
286 LINCOLN ST,44.0885580981599,-70.216343794284
286 LISBON,44.0314649,-70.1044975
280 LISBON,44.0314649,-70.1044975
318 LISBON,44.0314649,-70.1044975
161 PARK ST ALLEY,44.098097,-70.217367
203 PARK ST ALLEY,44.098097,-70.217367
161 PARK ST ALLEY,44.098097,-70.217367
203 PARK ST ALLEY,44.098097,-70.217367
199 PARK ST ALLEY,44.098097,-70.217367
195 PARK ST ALLEY,44.098097,-70.217367
110 HINES ALLEY,44.094349,-70.219525
149 LINCOLN ST,44.0925194514187,-70.2190572747766
148 LINCOLN ST,44.0928036255823,-70.2189824986912
168 LINCOLN ST,44.0922947763764,-70.2186684643237
144 LINCOLN ST,44.0929048127911,-70.2190462493456
86 HINES ALLEY,44.094349,-70.219525
83 CHESTNUT ST,44.0934790625,-70.2183238125
273 LISBON,44.0314649,-70.1044975
396 LISBON,44.0314649,-70.1044975
376 LISBON,44.0314649,-70.1044975
362 LISBON,44.0314649,-70.1044975
16 HORTON ST,44.0995711210162,-70.2116646988899
32 HORTON ST,44.0991061164633,-70.2113649261927
100 HORTON ST,44.096306,-70.209624
156 HORTON ST,44.0945360857425,-70.2085213777993
123 HORTON ST,44.095590478617,-70.2094284640783
72 WALNUT ST,44.0963173333333,-70.2094523333333
47 HOWE ST,44.098396,-70.210123
38 HOWARD,44.0989544816048,-70.208127743647
231 ASH ST,44.0996659811373,-70.2063208304814
247 SABATTUS ST,44.1003119166667,-70.2027899166667
211 SABATTUS ST,44.1001385147241,-70.2046989470724
224 PINE ST,44.0987329285714,-70.2057080714286
292 OLD WEBSTER RD,44.0789053385421,-70.1539670195131
204 OLD WEBSTER RD,44.0784094750389,-70.1564925369218
18 HORTON ST,44.0995129954471,-70.2116272273028
28 HORTON ST,44.0992223676015,-70.211439869367
110 HORTON ST,44.0958521238137,-70.2093413893036
112 HORTON ST,44.0957949047671,-70.2093057366295
130 HORTON ST,44.095279933348,-70.2089848625626
156 HEMLOCK LN,44.039129,-70.145742
170 HEMLOCK LN,44.039129,-70.145742
123 HOWE ST,44.0955205,-70.2084582117163
25 HOWE ST,44.0992182044773,-70.210640344358
16 HOWE ST,44.0995790683395,-70.2106111640601
38 HOWE ST,44.0989272943813,-70.2101991306962
34 HOWE ST,44.0990451611184,-70.2102750616889
20 HOWE ST,44.0994594468698,-70.2105380286557
10 HOWE ST,44.099758500544,-70.2107208671668
114 HOWE ST,44.0961667,-70.208309048336
71 WALNUT ST,44.096309,-70.2094775
73 WALNUT ST,44.0963256666667,-70.2094271666667
75 WALNUT ST,44.0962932,-70.2089652
170 PINE ST,44.097938,-70.2081565
279 SABATTUS ST,44.1004553636364,-70.2011759090909
99 SABATTUS ST,44.102143,-70.150527
51 HOWARD,44.098543,-70.207998
19 OLD WEBSTER RD,44.0774696332407,-70.1607540462093
22 OLD WEBSTER RD,44.0778348372873,-70.1617173589505
86 OLD WEBSTER RD,44.0777794976548,-70.159886488284
42 PLEASANT ST,44.085455,-70.195355
374 LISBON,44.0314649,-70.1044975
316 LISBON,44.0314649,-70.1044975
84 HIDDEN VALLEY DR,44.0401466880663,-70.1558259021432
170 LINCOLN ST,44.0922440994496,-70.2186367216333
293 LISBON,44.0314649,-70.1044975
323 LISBON,44.0314649,-70.1044975
346 LISBON,44.0314649,-70.1044975
334 LISBON,44.0314649,-70.1044975
306 LISBON,44.0314649,-70.1044975
280 LISBON,44.0314649,-70.1044975
110 HIDDEN VALLEY DR,44.039637,-70.156076
54 1ST ST,44.0818708937533,-70.1960743897762
313 LINCOLN ST,44.0873581922036,-70.2151969965377
376 LINCOLN ST,44.0847226200955,-70.2110490251194
350 LISBON,44.0314649,-70.1044975
173 PARK ST ALLEY,44.098097,-70.217367
189 PARK ST ALLEY,44.098097,-70.217367
97 CHESTNUT ST,44.0934799375,-70.2183211875
52 LINCOLN ST,44.0954835,-70.220616
313 LISBON,44.0314649,-70.1044975
333 LISBON,44.0314649,-70.1044975
140 HIDDEN VALLEY DR,44.039637,-70.156076
86 HIDDEN VALLEY DR,44.040173572502,-70.1558170339785
121 HIDDEN VALLEY DR,44.039637,-70.156076
58 1ST ST,44.0818351948292,-70.1959977621494
195 LINCOLN ST,44.0917024,-70.2186146
152 LINCOLN ST,44.0927024383734,-70.2189187480368
112 HIDDEN VALLEY DR,44.039637,-70.156076
162 HIDDEN VALLEY DR,44.039637,-70.156076
199 LINCOLN ST,44.091471,-70.218409
165 LINCOLN ST,44.0921831783679,-70.2188510151801
119 LINCOLN ST,44.0939746923077,-70.219965
175 LINCOLN ST,44.091972068704,-70.2187236870239
163 LINCOLN ST,44.0922251063292,-70.2188769705847
198 1ST ST,44.082207,-70.197126
158 LINCOLN ST,44.0925496739862,-70.2188247170606
1 1ST ST,44.082574,-70.1981
304 LISBON,44.0314649,-70.1044975
335 LISBON,44.0314649,-70.1044975
345 LISBON,44.0314649,-70.1044975
353 LISBON,44.0314649,-70.1044975
355 LISBON,44.0314649,-70.1044975
324 LISBON,44.0314649,-70.1044975
77 NICHOLS ST,44.1024276,-70.2067759014745
115 ATWOOD ST,44.103664,-70.17172
104 OAK ST,44.1003822165373,-70.2130837881675
230 OAK ST,44.10476875,-70.210826
34 SABATTUS ST,44.1001794210526,-70.2123835263158
336 COLLEGE ST,44.1081884651377,-70.2045978800962
84 PETTINGILL ST,44.1109423210829,-70.2032280437764
562 GERMAINE ST,44.096755,-70.202873
666 GERMAINE ST,44.096755,-70.202873
668 GERMAINE ST,44.096755,-70.202873
34 ATWOOD ST,44.1038378724727,-70.1723362016835
111 ATWOOD ST,44.103664,-70.17172
141 NICHOLS ST,44.1041386428571,-70.2055183571429
108 NICHOLS ST,44.1033165789474,-70.2065792105263
68 NICHOLS ST,44.1023534,-70.2076565743585
75 NICHOLS ST,44.10235705,-70.2069751259957
118 OAK ST,44.1007067609207,-70.2128953014648
418 SABATTUS ST,44.1011651304348,-70.1950082608696
256 COLLEGE ST,44.105838,-70.206858
162 COLLEGE ST,44.103034,-70.2094308333333
617 GERMAINE ST,44.096755,-70.202873
487 GERMAINE ST,44.096755,-70.202873
700 GERMAINE ST,44.096755,-70.202873
600 COLLEGE ST,44.1232320065361,-70.1897945410477
249 COLLEGE ST,44.1052250882353,-70.2071538529412
349 COLLEGE ST,44.1086897284296,-70.2041074030572
540 GERMAINE ST,44.096755,-70.202873
839 GERMAINE ST,44.096755,-70.202873
1051 GERMAINE ST,44.096755,-70.202873
229 EAST AVE,44.0988312568772,-70.1958951481414
425 GERMAINE ST,44.096755,-70.202873
426 GERMAINE ST,44.096755,-70.202873
427 GERMAINE ST,44.096755,-70.202873
428 GERMAINE ST,44.096755,-70.202873
429 GERMAINE ST,44.096755,-70.202873
74 COLLEGE ST,44.1004103567581,-70.2118921748033
310 SABATTUS ST,44.1006655,-70.19878115625
311 SABATTUS ST,44.100668,-70.1987530625
128 COLLEGE ST,44.102007851922,-70.2103632852574
8 CHALLENGER DR,44.068298,-70.186948
52 SABATTUS ST,44.1012996491665,-70.1501052950982
141 HOLLAND ST,44.1039493947368,-70.2126240789474
142 HOLLAND ST,44.1039420526316,-70.2126022105263
500 COLLEGE ST,44.11814,-70.194785
1540 GERMAINE ST,44.096755,-70.202873
34 PETTINGILL ST,44.1123609611744,-70.2060723309118
569 GERMAINE ST,44.096755,-70.202873
570 GERMAINE ST,44.096755,-70.202873
571 GERMAINE ST,44.096755,-70.202873
572 GERMAINE ST,44.096755,-70.202873
573 GERMAINE ST,44.096755,-70.202873
574 GERMAINE ST,44.096755,-70.202873
84 COLLEGE ST,44.1005417261264,-70.2117678624672
18 ATWOOD ST,44.1039017902788,-70.1727504742036
74 NICHOLS ST,44.1026783,-70.2073025462313
143 OAK ST,44.1013888,-70.2124936
86 NICHOLS ST,44.10289815,-70.207085417172
183 OAK ST,44.1029244166667,-70.2116118333333
18 FRYE ST,44.106046,-70.20924
75 HOLLAND ST,44.1049218742296,-70.2153572664571
148 HOLLAND ST,44.103898,-70.212471
22 PETTINGILL ST,44.1126096194085,-70.2065747190486
62 WARE ST,44.108829758678,-70.2052047911166
262 COLLEGE ST,44.1060076148956,-70.2067005461724
193 COLLEGE ST,44.1035878181818,-70.2086678181818
130 COLLEGE ST,44.1020586461529,-70.2103162535622
107 COLLEGE ST,44.1012152857143,-70.2108328571429
708 GERMAINE ST,44.096755,-70.202873
378 COLLEGE ST,44.110528,-70.202313
740 GERMAINE ST,44.096755,-70.202873
822 GERMAINE ST,44.096755,-70.202873
16 MONTELLO ST,44.1196317515416,-70.2021702290186
56 MONTELLO ST,44.1191215296958,-70.1984300215855
341 GERMAINE ST,44.096755,-70.202873
403 GERMAINE ST,44.096755,-70.202873
583 GERMAINE ST,44.096755,-70.202873
387 GERMAINE ST,44.096755,-70.202873
722 SABATTUS ST,44.1030279831644,-70.1779641183165
282 EAST AVE,44.1016486806125,-70.1935691235391
77 BIRCH ST,44.0933434285714,-70.2102403333333
262 BLAKE ST,44.0914883157895,-70.2097571052632
82 MAPLEWOOD RD,44.0863358503197,-70.1718313488517
79 MAPLEWOOD RD,44.0862443615695,-70.171632329925
53 BIRCH ST,44.0930720220094,-70.2116711951343
278 BATES ST,44.0926976666667,-70.2115491111111
284 BATES ST,44.0925413333333,-70.2114522222222
71 MAPLEWOOD RD,44.0861475720582,-70.1717286461353
64 MAPLEWOOD RD,44.0861194910458,-70.1720347128629
65 MAPLEWOOD RD,44.0860723889657,-70.1717982412953
94 KNOX ST,44.0908617605554,-70.2114531468853
78 KNOX ST,44.091230826087,-70.2116811304348
35 KNOX ST,44.09244604,-70.21269292
38 KNOX ST,44.0924473478261,-70.2124437391304
43 KNOX ST,44.0922222,-70.2125526
42 KNOX ST,44.0923256956522,-70.2123674782609
57 KNOX ST,44.09183048,-70.21230704
65 KNOX ST,44.09160664,-70.21216672
73 KNOX ST,44.0913828,-70.2120264
75 KNOX ST,44.09132684,-70.21199132
07 LISBON,44.0314649,-70.1044975
69 CEDAR ST,44.091105,-70.2188603877551
250 LINCOLN ST,44.0903034660799,-70.2174052084586
287 LINCOLN ST,44.088189,-70.216329
275 PARK ST ALLEY,44.098097,-70.217367
33 MAPLEWOOD RD,44.0856825110143,-70.1721809089132
19 MAPLEWOOD RD,44.0855071533043,-70.172343372674
502 LISBON,44.0314649,-70.1044975
10 MAPLEWOOD RD,44.0852341271873,-70.1728854072929
18 MAPLEWOOD RD,44.085571801851,-70.1725595832429
48 MAPLEWOOD RD,44.0859342509392,-70.1722227490466
264 PARK ST ALLEY,44.098097,-70.217367
250 PARK ST ALLEY,44.098097,-70.217367
217 BIRCH ST,44.094044,-70.208349
249 PARK ST ALLEY,44.098097,-70.217367
414 LISBON,44.0314649,-70.1044975
424 LISBON,44.0314649,-70.1044975
303 LINCOLN ST,44.0876330573904,-70.2156072754771
291 LINCOLN ST,44.088048,-70.2161782
348 LINCOLN ST,44.085101478587,-70.2115535320857
257 LINCOLN ST,44.0897068,-70.2173112
227 LINCOLN ST,44.0905780647675,-70.2178571081156
221 LINCOLN ST,44.0907302026777,-70.2179544099175
101 BIRCH ST,44.093741,-70.209008
193 BARTLETT ST,44.0935781105725,-70.2092218144145
248 BLAKE ST,44.0920175416667,-70.210084875
264 BLAKE ST,44.091478631579,-70.2097512105263
265 BLAKE ST,44.0914126315789,-70.2099602105263
78 MAPLEWOOD RD,44.086287435706,-70.1718761873859
295 BATES ST,44.0925994,-70.2117377333333
287 BATES ST,44.0926932,-70.2117958666667
237 BLAKE ST,44.0921914482759,-70.210442137931
321 BATES ST,44.09229455,-70.2115488
326 BATES ST,44.091447,-70.210774
323 BATES ST,44.0922711,-70.2115342666667
313 BATES ST,44.09238835,-70.2116069333333
62 MAPLEWOOD RD,44.0860963360325,-70.1720582173859
63 MAPLEWOOD RD,44.0860473279349,-70.1718214396819
68 KNOX ST,44.0915349565217,-70.2118717826087
62 KNOX ST,44.0917174347826,-70.211986173913
58 KNOX ST,44.0918390869565,-70.2120624347826
77 KNOX ST,44.09127088,-70.21195624
55 MAPLEWOOD RD,44.085950687152,-70.1719179642658
45 MAPLEWOOD RD,44.085830403531,-70.1720391556876
103 PARK ST ALLEY,44.098097,-70.217367
101 ASH ST,44.097576,-70.212779
106 CHESTNUT ST,44.0944693061224,-70.2152092653061
120 BARTLETT ST,44.0961008201305,-70.2105299890617
115 BARTLETT ST,44.0962864726317,-70.2108947006653
126 BLAKE ST,44.0960411358863,-70.2125767072026
101 PINE ST,44.096579,-70.211806
163 BATES ST,44.0964340816327,-70.2141248163265
118 PINE ST,44.0970913157895,-70.210772
223 LISBON,44.0314649,-70.1044975
92 PIERCE ST,44.095526,-70.211218
139 PARK ST ALLEY,44.098097,-70.217367
73 PINE ST,44.0961612412295,-70.2131060780521
92 PRINCE ST,44.097307,-70.209829
91 HORTON ST,44.0965834444444,-70.2100457777778
78 PIERCE ST,44.0960604466717,-70.2115486068028
165 BATES ST,44.0964166326531,-70.2141133265306
118 PIERCE ST,44.0950611886792,-70.2109293018868
87 PINE ST,44.0963566666667,-70.2124956666667
141 PARK ST ALLEY,44.098097,-70.217367
92 BLAKE ST,44.0971194201211,-70.2132453074773
83 BARTLETT ST,44.0974592857143,-70.2116232857143
99 ASH ST,44.097499,-70.213005
119 BARTLETT ST,44.0961575997736,-70.2108150330764
98 BLAKE ST,44.0969572105396,-70.2131452916561
43 BATES ST,44.1005743291386,-70.21680010455
139 BATES ST,44.0966434693878,-70.2142626938776
63 BARTLETT ST,44.098215753829,-70.2120941904177
164 BATES ST,44.0966185,-70.2139925
134 PARK ST ALLEY,44.098097,-70.217367
99 HORTON ST,44.096239,-70.209832
142 BLAKE ST,44.0956264916054,-70.2123209201462
113 ASH ST,44.0977511428571,-70.2122474285714
103 ASH ST,44.0975885,-70.212744
70 PINE ST,44.0963213769494,-70.2131717497329
135 ASH ST,44.0980143333333,-70.2114316666667
39 ASH ST,44.0971815952381,-70.2139860714286
100 BLAKE ST,44.0969027427019,-70.2131125925832
85 PINE ST,44.0963364444444,-70.2125584444444
138 BLAKE ST,44.0957301526756,-70.2123848669103
103 BLAKE ST,44.0968210409453,-70.2130635439739
52 PRINCE ST,44.097307,-70.209829
97 PARK ST ALLEY,44.098097,-70.217367
104 BLAKE ST,44.0967938070264,-70.2130471944374
130 BLAKE ST,44.0959374748161,-70.2125127604385
26 WALNUT ST,44.0955942,-70.2117058
32 WALNUT ST,44.09563,-70.211595
85 PRINCE ST,44.097307,-70.209829
91 PINE ST,44.0963971111111,-70.2123701111111
99 BLAKE ST,44.0969299766207,-70.2131289421197
73 PRINCE ST,44.097307,-70.209829
31 ASH ST,44.0971637857143,-70.2140412142857
108 BARTLETT ST,44.0965235988568,-70.210791387419
139 ASH ST,44.0980341111111,-70.2113705555556
94 BLAKE ST,44.0970660251514,-70.2132108843467
128 BLAKE ST,44.0959893053512,-70.2125447338206
110 BARTLETT ST,44.096453498571,-70.2107472342738
114 BARTLETT ST,44.0963132805219,-70.2106589562466
111 ASH ST,44.0977254285714,-70.2123272857143
91 BLAKE ST,44.097146117606,-70.2132625190427
41 PRINCE ST,44.097307,-70.209829
51 PRINCE ST,44.097307,-70.209829
106 PINE ST,44.0966531666667,-70.2115755833333
118 BARTLETT ST,44.096171640261,-70.2105729781233
42 WALNUT ST,44.0958195,-70.2110035
82 PRINCE ST,44.097307,-70.209829
136 BLAKE ST,44.0957819832107,-70.2124168402923
134 BLAKE ST,44.0958338137458,-70.2124488136744
160 LISBON,44.0314649,-70.1044975
119 ASH ST,44.0978282857143,-70.2120078571429
109 ASH ST,44.0976997142857,-70.2124071428571
116 BARTLETT ST,44.0962424603914,-70.210615967185
42 PRINCE ST,44.097307,-70.209829
75 HORTON ST,44.0973638571429,-70.2105298571429
79 PRINCE ST,44.097307,-70.209829
140 BLAKE ST,44.0956783221405,-70.2123528935282
90 PRINCE ST,44.097307,-70.209829
237 LISBON,44.0314649,-70.1044975
92 WALNUT ST,44.0966846666667,-70.208311
124 BLAKE ST,44.0960928386356,-70.212608880106
96 BLAKE ST,44.0970116783773,-70.2131779907291
101 PARK ST ALLEY,44.098097,-70.217367
257 LISBON,44.0314649,-70.1044975
56 PIERCE ST,44.0967810714286,-70.2119943214286
79 PIERCE ST,44.0959415723621,-70.211727144518
129 BLAKE ST,44.0959633900836,-70.2125287471295
105 PARK ST ALLEY,44.098097,-70.217367
232 LISBON,44.0314649,-70.1044975
86 PIERCE ST,44.0958541488906,-70.2114215356009
82 PIERCE ST,44.0959572977812,-70.2114850712019
125 ASH ST,44.0979648888889,-70.2115844444444
95 HORTON ST,44.0964112222222,-70.2099388888889
127 BLAKE ST,44.0960152206188,-70.2125607205116
80 PINE ST,44.0963427294916,-70.2131036249555
69 ASH ST,44.0972483809524,-70.2137792857143
131 BLAKE ST,44.0959115595485,-70.2124967737475
81 PINE ST,44.096296,-70.212684
65 PIERCE ST,44.0963006103781,-70.2119550190521
56 KING AVE,44.1224170178584,-70.1993489370685
278 PARK ST ALLEY,44.098097,-70.217367
89 BIRCH ST,44.0934908333333,-70.20978
214 BLAKE ST,44.0930155833333,-70.21070325
55 BIRCH ST,44.0930980660283,-70.2115915854028
178 BATES ST,44.096191,-70.213711
75 MAPLEWOOD RD,44.0861969959994,-70.1716815374895
297 BATES ST,44.09257595,-70.2117232
12 KNOX ST,44.0933926666667,-70.213028
69 MAPLEWOOD RD,44.0861225110273,-70.171751844522
57 MAPLEWOOD RD,44.0859747438762,-70.1718937259814
67 MAPLEWOOD RD,44.0860974499965,-70.1717750429086
102 KNOX ST,44.0908069342589,-70.2114199114755
104 KNOX ST,44.0907932276848,-70.2114116026231
106 KNOX ST,44.0907795211107,-70.2114032937707
108 KNOX ST,44.0907658145366,-70.2113949849182
258 PARK ST ALLEY,44.098097,-70.217367
23 PARK ST ALLEY,44.098097,-70.217367
76 PARK ST ALLEY,44.098097,-70.217367
424 KNOX ST,44.092648,-70.212695
414 KNOX ST,44.092648,-70.212695
411 KNOX ST,44.092648,-70.212695
407 LISBON,44.0314649,-70.1044975
297 LISBON,44.0314649,-70.1044975
103 LISBON,44.0314649,-70.1044975
5 LISBON,44.0314649,-70.1044975
126 LISBON,44.0314649,-70.1044975
17 CEDAR ST,44.091079,-70.2189373265306
19 RIVER ST,44.0906760146143,-70.2194053542062
17 RIVER ST,44.0907012220378,-70.2194081226515
265 BARTLETT ST,44.0920837237719,-70.2082929868578
254 BLAKE ST,44.0918414166667,-70.20997575
227 BLAKE ST,44.0924343793103,-70.2105926551724
217 BLAKE ST,44.0926773103448,-70.2107431724138
320 BATES ST,44.0916033333333,-70.2108708888889
293 BATES ST,44.09262285,-70.2117522666667
315 BATES ST,44.0923649,-70.2115924
52 KNOX ST,44.0920215652174,-70.212176826087
13 BIRCH ST,44.0925627142857,-70.2132307142857
248 PARK ST ALLEY,44.098097,-70.217367
245 PARK ST ALLEY,44.098097,-70.217367
239 PARK ST ALLEY,44.098097,-70.217367
46 MAPLEWOOD RD,44.0859110959259,-70.1722462535696
52 MAPLEWOOD RD,44.0859805609659,-70.1721757400007
37 MAPLEWOOD RD,44.0857326132171,-70.1721344906959
420 LISBON,44.0314649,-70.1044975
397 LISBON,44.0314649,-70.1044975
395 LISBON,44.0314649,-70.1044975
13 RIVER ST,44.0907516368848,-70.2194136595423
29 RIVER ST,44.0905499774969,-70.2193915119794
27 RIVER ST,44.0905751849204,-70.2193942804248
48 RIVER ST,44.0896217851048,-70.2185766124794
69 RIVER ST,44.0900461446227,-70.2193357730447
78 RIVER ST,44.089823,-70.219181
157 HORTON ST,44.0949359455707,-70.2090211812903
135 BARTLETT ST,44.0954937419355,-70.2104057741935
107 PIERCE ST,44.0951782592593,-70.2112516296296
6 KNOX ST,44.0935722666667,-70.2131384
5 KNOX ST,44.0935062666667,-70.2133474
10 KNOX ST,44.0934525333333,-70.2130648
22 KNOX ST,44.0930933333333,-70.212844
41 WALNUT ST,44.095691875,-70.210840875
139 HORTON ST,44.0952824630658,-70.2092368015899
147 HORTON ST,44.0951284552902,-70.2091409703456
157 BARTLETT ST,44.0948220322581,-70.2099899032258
24 KNOX ST,44.0930334666667,-70.2128072
24 KNOWLTON ST,44.0957487144964,-70.1550117853193
35 WALNUT ST,44.09562475,-70.21104975
45 WALNUT ST,44.095736625,-70.210701625
107 HORTON ST,44.0958984941683,-70.2096201265668
127 HORTON ST,44.0955134747292,-70.2093805484562
273 BATES ST,44.0930606871808,-70.2120218315599
129 BARTLETT ST,44.0956769354839,-70.2105191935484
131 BARTLETT ST,44.0956158709677,-70.2104813870968
180 BARTLETT ST,44.094148625,-70.2093225
152 BARTLETT ST,44.0949768125,-70.20983525
146 BARTLETT ST,44.09515428125,-70.209945125
162 BARTLETT ST,44.09468103125,-70.209652125
184 BARTLETT ST,44.0940303125,-70.20924925
186 BARTLETT ST,44.09397115625,-70.209212625
148 BARTLETT ST,44.095095125,-70.2099085
183 PIERCE ST,44.0938447407407,-70.2104233703704
132 PIERCE ST,44.0948109056604,-70.2107738490566
125 PIERCE ST,44.0948624259259,-70.211055462963
121 PIERCE ST,44.0949326111111,-70.2110990555556
119 PIERCE ST,44.0949677037037,-70.2111208518519
142 BARTLETT ST,44.09527259375,-70.210018375
117 PIERCE ST,44.0950027962963,-70.2111426481482
189 BLAKE ST,44.0939745718103,-70.2113011281385
188 BLAKE ST,44.0940070229582,-70.2113213980406
176 BLAKE ST,44.0943964367332,-70.2115646368649
190 PARK ST ALLEY,44.098097,-70.217367
206 PARK ST ALLEY,44.098097,-70.217367
21 WALNUT ST,44.0954278571429,-70.2116602857143
61 WALNUT ST,44.0959646,-70.2099884
27 HORTON ST,44.0990590586049,-70.2115878324768
112 BIRCH ST,44.0939544705882,-70.2089072352941
110 BIRCH ST,44.0939440588235,-70.2089395294118
73 BATES ST,44.0995120691192,-70.2160326414715
165 BARTLETT ST,44.0945777741935,-70.2098386774194
151 BARTLETT ST,44.0950052258065,-70.2101033225806
127 BARTLETT ST,44.095738,-70.210557
187 BARTLETT ST,44.0939060645161,-70.2094228064516
130 PIERCE ST,44.0948466603774,-70.2107960566038
148 PIERCE ST,44.0945248679245,-70.2105961886792
156 PIERCE ST,44.0943818490566,-70.2105073584906
133 PIERCE ST,44.0947220555556,-70.2109682777778
113 PIERCE ST,44.0950729814815,-70.2111862407407
172 BLAKE ST,44.0945262413248,-70.211645716473
1 BLAKE ST,44.100263,-70.215455
156 BLAKE ST,44.0950455506759,-70.2119698854499
194 PARK ST ALLEY,44.098097,-70.217367
224 PARK ST ALLEY,44.098097,-70.217367
13 KNOX ST,44.0932668,-70.2132002
17 KNOX ST,44.0931470666667,-70.2131266
29 WALNUT ST,44.095479,-70.211502
109 HORTON ST,44.0958599922244,-70.2095961687558
135 HORTON ST,44.0953594669536,-70.209284717212
137 PIERCE ST,44.0946518703704,-70.2109246851852
170 BLAKE ST,44.0945911436207,-70.211686256277
102 BLAKE ST,44.0968482748641,-70.2130798935103
176 PARK ST ALLEY,44.098097,-70.217367
204 PARK ST ALLEY,44.098097,-70.217367
208 PARK ST ALLEY,44.098097,-70.217367
212 PARK ST ALLEY,44.098097,-70.217367
1 KNOX ST,44.093626,-70.213421
16 KNOX ST,44.0932729333333,-70.2129544
153 HORTON ST,44.0950129494585,-70.2090690969124
167 BARTLETT ST,44.0945167096774,-70.2098008709677
104 PIERCE ST,44.0953114716981,-70.211084754717
93 PIERCE ST,44.0954239074074,-70.2114042037037
180 BLAKE ST,44.0942666321415,-70.2114835572568
195 BLAKE ST,44.0937798649229,-70.2111795087264
196 PARK ST ALLEY,44.098097,-70.217367
20 KNOX ST,44.0931532,-70.2128808
68 BIRCH ST,44.093337,-70.210838
44 BIRCH ST,44.0928996604838,-70.2122119834592
130 BARTLETT ST,44.09562753125,-70.210238125
168 BARTLETT ST,44.0945035625,-70.20954225
144 PIERCE ST,44.0945963773585,-70.2106406037736
115 PIERCE ST,44.0950378888889,-70.2111644444444
9 KNOX ST,44.0933865333333,-70.2132738
23 KNOX ST,44.0929674666667,-70.2130162
158 BARTLETT ST,44.09479934375,-70.209725375
105 LINCOLN ST,44.0940441538462,-70.220007
24 LINCOLN ST,44.0968584736842,-70.2209524210526
61 LINCOLN ST,44.0953598531785,-70.2205723302678
12 LINCOLN ST,44.0969285789474,-70.2209947368421
65 LINCOLN ST,44.0950119807179,-70.2206063276793
115 LINCOLN ST,44.0939945384615,-70.219977
81 LINCOLN ST,44.0946740199666,-70.2203915625436
69 LINCOLN ST,44.0949279678632,-70.2205518794656
67 LINCOLN ST,44.0949699742906,-70.2205791035725
128 LINCOLN ST,44.0933604036895,-70.2193343400938
124 LINCOLN ST,44.0934131487436,-70.2193652596083
123 LINCOLN ST,44.0939548461538,-70.219953
90 LINCOLN ST,44.0940645,-70.21977
25 LINCOLN ST,44.0968526315789,-70.2209488947368
49 LINCOLN ST,44.0957594300862,-70.2209061215605
59 LINCOLN ST,44.0953715595354,-70.2205749908035
24 CHESTNUT ST,44.093475375,-70.218334875
19 LINCOLN ST,44.0968876842105,-70.2209700526316
74 LINCOLN ST,44.0947854408578,-70.2202085455126
66 LINCOLN ST,44.0951238011364,-70.220426012987
18 LINCOLN ST,44.0968935263158,-70.2209735789474
44 LINCOLN ST,44.0962249801883,-70.2207514483016
84 LINCOLN ST,44.094356,-70.219947
63 LINCOLN ST,44.0950539871453,-70.2206335517862
68 LINCOLN ST,44.0950396022728,-70.2203710259741
4 CHESTNUT ST,44.093474125,-70.218338625
73 LINCOLN ST,44.0948439550085,-70.2204974312518
14 LINCOLN ST,44.0969168947368,-70.2209876842105
34 LINCOLN ST,44.0968000526316,-70.2209171578947
35 LISBON,44.0314649,-70.1044975
7 HORTON ST,44.0997120904473,-70.2120079613408
51 COLLEGE ST,44.0998560265116,-70.2121922106907
7 BARTLETT ST,44.0999016666667,-70.213193
94 OAK ST,44.1000197431845,-70.2135770598183
35 SABATTUS ST,44.1001761842105,-70.2123611052632
42 BLAKE ST,44.0991238747034,-70.214494018619
3 LINCOLN ST,44.0969811578947,-70.2210264736842
61 LISBON,44.0314649,-70.1044975
53 CLEARWATER AVE,44.091269412602,-70.1907446345166
39 CLEARWATER AVE,44.0914532345337,-70.1905665733862
47 CLEARWATER AVE,44.0913481934299,-70.1906683226035
50 CLEARWATER AVE,44.0912083521152,-70.190518112634
20 LINCOLN ST,44.0968818421053,-70.2209665263158
55 RAILROAD ALLEY,44.0956476734694,-70.2205406122449
13 RAILROAD ALLEY,44.0956588163265,-70.2204724693878
9 RAILROAD ALLEY,44.095659877551,-70.2204659795918
59 GERMAINE ST,44.0963194761905,-70.2022087142857
57 GERMAINE ST,44.096333,-70.2022355
8 HORTON ST,44.0998036232927,-70.2118145852386
94 BATES ST,44.0987569903717,-70.2155770798476
10 COLLEGE ST,44.0995834760282,-70.2125056379691
62 PARK ST ALLEY,44.098097,-70.217367
34 PARK ST ALLEY,44.098097,-70.217367
32 PARK ST ALLEY,44.098097,-70.217367
87 GERMAINE ST,44.0961301428571,-70.2018337142857
51 GERMAINE ST,44.0963735714286,-70.2023158571429
18 GERMAINE ST,44.096712372093,-70.2025885116279
17 GERMAINE ST,44.0966034761905,-70.2027712142857
35 RAILROAD ALLEY,44.0956529795918,-70.2205081632653
25 CLEARWATER AVE,44.0916364835288,-70.1903879276917
33 CLEARWATER AVE,44.0915320153615,-70.1904902614731
54 CLEARWATER AVE,44.09115415572,-70.1905697137089
9 HORTON ST,44.099646787263,-70.2119659484544
8 JONES AVE,44.0772771735368,-70.1892177139665
22 BARTLETT ST,44.0990329145062,-70.212362338155
13 BARTLETT ST,44.0997243333333,-70.21307
67 OAK ST,44.099269,-70.2138925
29 SABATTUS ST,44.1001956052632,-70.2124956315789
22 BLAKE ST,44.0997283494808,-70.2148626666633
12 CLEARWATER AVE,44.0917196125751,-70.1900241765836
41 LISBON,44.0314649,-70.1044975
28 BATES ST,44.1014796041667,-70.2171858541667
82 OAK ST,44.099464,-70.213998
18 BLAKE ST,44.099847761847,-70.2149388088182
16 BLAKE ST,44.0999074680302,-70.2149768798956
56 PARK ST ALLEY,44.098097,-70.217367
42 PARK ST ALLEY,44.098097,-70.217367
53 PARK ST ALLEY,44.098097,-70.217367
117 PIERCE ST,44.0950027962963,-70.2111426481482
189 BLAKE ST,44.0939745718103,-70.2113011281385
188 BLAKE ST,44.0940070229582,-70.2113213980406
176 BLAKE ST,44.0943964367332,-70.2115646368649
190 PARK ST ALLEY,44.098097,-70.217367
206 PARK ST ALLEY,44.098097,-70.217367
21 WALNUT ST,44.0954278571429,-70.2116602857143
45 WALNUT ST,44.095736625,-70.210701625
61 WALNUT ST,44.0959646,-70.2099884
27 HORTON ST,44.0990590586049,-70.2115878324768
127 HORTON ST,44.0955134747292,-70.2093805484562
112 BIRCH ST,44.0939544705882,-70.2089072352941
110 BIRCH ST,44.0939440588235,-70.2089395294118
73 BATES ST,44.0995120691192,-70.2160326414715
146 BARTLETT ST,44.09515428125,-70.209945125
152 BARTLETT ST,44.0949768125,-70.20983525
165 BARTLETT ST,44.0945777741935,-70.2098386774194
151 BARTLETT ST,44.0950052258065,-70.2101033225806
131 BARTLETT ST,44.0956158709677,-70.2104813870968
129 BARTLETT ST,44.0956769354839,-70.2105191935484
127 BARTLETT ST,44.095738,-70.210557
187 BARTLETT ST,44.0939060645161,-70.2094228064516
130 PIERCE ST,44.0948466603774,-70.2107960566038
148 PIERCE ST,44.0945248679245,-70.2105961886792
156 PIERCE ST,44.0943818490566,-70.2105073584906
133 PIERCE ST,44.0947220555556,-70.2109682777778
125 PIERCE ST,44.0948624259259,-70.211055462963
121 PIERCE ST,44.0949326111111,-70.2110990555556
113 PIERCE ST,44.0950729814815,-70.2111862407407
172 BLAKE ST,44.0945262413248,-70.211645716473
1 BLAKE ST,44.100263,-70.215455
156 BLAKE ST,44.0950455506759,-70.2119698854499
194 PARK ST ALLEY,44.098097,-70.217367
224 PARK ST ALLEY,44.098097,-70.217367
6 KNOX ST,44.0935722666667,-70.2131384
5 KNOX ST,44.0935062666667,-70.2133474
13 KNOX ST,44.0932668,-70.2132002
17 KNOX ST,44.0931470666667,-70.2131266
29 WALNUT ST,44.095479,-70.211502
109 HORTON ST,44.0958599922244,-70.2095961687558
135 HORTON ST,44.0953594669536,-70.209284717212
137 PIERCE ST,44.0946518703704,-70.2109246851852
119 PIERCE ST,44.0949677037037,-70.2111208518519
170 BLAKE ST,44.0945911436207,-70.211686256277
102 BLAKE ST,44.0968482748641,-70.2130798935103
176 PARK ST ALLEY,44.098097,-70.217367
204 PARK ST ALLEY,44.098097,-70.217367
208 PARK ST ALLEY,44.098097,-70.217367
212 PARK ST ALLEY,44.098097,-70.217367
1 KNOX ST,44.093626,-70.213421
16 KNOX ST,44.0932729333333,-70.2129544
153 HORTON ST,44.0950129494585,-70.2090690969124
186 BARTLETT ST,44.09397115625,-70.209212625
167 BARTLETT ST,44.0945167096774,-70.2098008709677
104 PIERCE ST,44.0953114716981,-70.211084754717
93 PIERCE ST,44.0954239074074,-70.2114042037037
180 BLAKE ST,44.0942666321415,-70.2114835572568
195 BLAKE ST,44.0937798649229,-70.2111795087264
196 PARK ST ALLEY,44.098097,-70.217367
20 KNOX ST,44.0931532,-70.2128808
68 BIRCH ST,44.093337,-70.210838
44 BIRCH ST,44.0928996604838,-70.2122119834592
130 BARTLETT ST,44.09562753125,-70.210238125
168 BARTLETT ST,44.0945035625,-70.20954225
144 PIERCE ST,44.0945963773585,-70.2106406037736
115 PIERCE ST,44.0950378888889,-70.2111644444444
107 PIERCE ST,44.0951782592593,-70.2112516296296
9 KNOX ST,44.0933865333333,-70.2132738
23 KNOX ST,44.0929674666667,-70.2130162
158 BARTLETT ST,44.09479934375,-70.209725375
184 BARTLETT ST,44.0940303125,-70.20924925
105 LINCOLN ST,44.0940441538462,-70.220007
24 LINCOLN ST,44.0968584736842,-70.2209524210526
61 LINCOLN ST,44.0953598531785,-70.2205723302678
12 LINCOLN ST,44.0969285789474,-70.2209947368421
65 LINCOLN ST,44.0950119807179,-70.2206063276793
119 LINCOLN ST,44.0939746923077,-70.219965
115 LINCOLN ST,44.0939945384615,-70.219977
81 LINCOLN ST,44.0946740199666,-70.2203915625436
69 LINCOLN ST,44.0949279678632,-70.2205518794656
67 LINCOLN ST,44.0949699742906,-70.2205791035725
128 LINCOLN ST,44.0933604036895,-70.2193343400938
124 LINCOLN ST,44.0934131487436,-70.2193652596083
123 LINCOLN ST,44.0939548461538,-70.219953
90 LINCOLN ST,44.0940645,-70.21977
25 LINCOLN ST,44.0968526315789,-70.2209488947368
49 LINCOLN ST,44.0957594300862,-70.2209061215605
59 LINCOLN ST,44.0953715595354,-70.2205749908035
24 CHESTNUT ST,44.093475375,-70.218334875
19 LINCOLN ST,44.0968876842105,-70.2209700526316
74 LINCOLN ST,44.0947854408578,-70.2202085455126
66 LINCOLN ST,44.0951238011364,-70.220426012987
18 LINCOLN ST,44.0968935263158,-70.2209735789474
44 LINCOLN ST,44.0962249801883,-70.2207514483016
84 LINCOLN ST,44.094356,-70.219947
257 LINCOLN ST,44.0897068,-70.2173112
63 LINCOLN ST,44.0950539871453,-70.2206335517862
68 LINCOLN ST,44.0950396022728,-70.2203710259741
4 CHESTNUT ST,44.093474125,-70.218338625
73 LINCOLN ST,44.0948439550085,-70.2204974312518
14 LINCOLN ST,44.0969168947368,-70.2209876842105
34 LINCOLN ST,44.0968000526316,-70.2209171578947
35 LISBON,44.0314649,-70.1044975
7 HORTON ST,44.0997120904473,-70.2120079613408
51 COLLEGE ST,44.0998560265116,-70.2121922106907
7 BARTLETT ST,44.0999016666667,-70.213193
94 OAK ST,44.1000197431845,-70.2135770598183
35 SABATTUS ST,44.1001761842105,-70.2123611052632
42 BLAKE ST,44.0991238747034,-70.214494018619
3 LINCOLN ST,44.0969811578947,-70.2210264736842
61 LISBON,44.0314649,-70.1044975
53 CLEARWATER AVE,44.091269412602,-70.1907446345166
39 CLEARWATER AVE,44.0914532345337,-70.1905665733862
47 CLEARWATER AVE,44.0913481934299,-70.1906683226035
50 CLEARWATER AVE,44.0912083521152,-70.190518112634
20 LINCOLN ST,44.0968818421053,-70.2209665263158
55 RAILROAD ALLEY,44.0956476734694,-70.2205406122449
13 RAILROAD ALLEY,44.0956588163265,-70.2204724693878
9 RAILROAD ALLEY,44.095659877551,-70.2204659795918
59 GERMAINE ST,44.0963194761905,-70.2022087142857
57 GERMAINE ST,44.096333,-70.2022355
8 HORTON ST,44.0998036232927,-70.2118145852386
94 BATES ST,44.0987569903717,-70.2155770798476
10 COLLEGE ST,44.0995834760282,-70.2125056379691
62 PARK ST ALLEY,44.098097,-70.217367
34 PARK ST ALLEY,44.098097,-70.217367
32 PARK ST ALLEY,44.098097,-70.217367
87 GERMAINE ST,44.0961301428571,-70.2018337142857
51 GERMAINE ST,44.0963735714286,-70.2023158571429
18 GERMAINE ST,44.096712372093,-70.2025885116279
17 GERMAINE ST,44.0966034761905,-70.2027712142857
35 RAILROAD ALLEY,44.0956529795918,-70.2205081632653
25 CLEARWATER AVE,44.0916364835288,-70.1903879276917
33 CLEARWATER AVE,44.0915320153615,-70.1904902614731
54 CLEARWATER AVE,44.09115415572,-70.1905697137089
9 HORTON ST,44.099646787263,-70.2119659484544
8 JONES AVE,44.0772771735368,-70.1892177139665
22 BARTLETT ST,44.0990329145062,-70.212362338155
13 BARTLETT ST,44.0997243333333,-70.21307
67 OAK ST,44.099269,-70.2138925
29 SABATTUS ST,44.1001956052632,-70.2124956315789
22 BLAKE ST,44.0997283494808,-70.2148626666633
12 CLEARWATER AVE,44.0917196125751,-70.1900241765836
41 LISBON,44.0314649,-70.1044975
28 BATES ST,44.1014796041667,-70.2171858541667
82 OAK ST,44.099464,-70.213998
18 BLAKE ST,44.099847761847,-70.2149388088182
16 BLAKE ST,44.0999074680302,-70.2149768798956
56 PARK ST ALLEY,44.098097,-70.217367
42 PARK ST ALLEY,44.098097,-70.217367
53 PARK ST ALLEY,44.098097,-70.217367
117 PIERCE ST,44.0950027962963,-70.2111426481482
189 BLAKE ST,44.0939745718103,-70.2113011281385
188 BLAKE ST,44.0940070229582,-70.2113213980406
176 BLAKE ST,44.0943964367332,-70.2115646368649
190 PARK ST ALLEY,44.098097,-70.217367
206 PARK ST ALLEY,44.098097,-70.217367
21 WALNUT ST,44.0954278571429,-70.2116602857143
45 WALNUT ST,44.095736625,-70.210701625
61 WALNUT ST,44.0959646,-70.2099884
27 HORTON ST,44.0990590586049,-70.2115878324768
127 HORTON ST,44.0955134747292,-70.2093805484562
112 BIRCH ST,44.0939544705882,-70.2089072352941
110 BIRCH ST,44.0939440588235,-70.2089395294118
73 BATES ST,44.0995120691192,-70.2160326414715
146 BARTLETT ST,44.09515428125,-70.209945125
152 BARTLETT ST,44.0949768125,-70.20983525
165 BARTLETT ST,44.0945777741935,-70.2098386774194
151 BARTLETT ST,44.0950052258065,-70.2101033225806
131 BARTLETT ST,44.0956158709677,-70.2104813870968
129 BARTLETT ST,44.0956769354839,-70.2105191935484
127 BARTLETT ST,44.095738,-70.210557
187 BARTLETT ST,44.0939060645161,-70.2094228064516
130 PIERCE ST,44.0948466603774,-70.2107960566038
148 PIERCE ST,44.0945248679245,-70.2105961886792
156 PIERCE ST,44.0943818490566,-70.2105073584906
133 PIERCE ST,44.0947220555556,-70.2109682777778
125 PIERCE ST,44.0948624259259,-70.211055462963
121 PIERCE ST,44.0949326111111,-70.2110990555556
113 PIERCE ST,44.0950729814815,-70.2111862407407
172 BLAKE ST,44.0945262413248,-70.211645716473
1 BLAKE ST,44.100263,-70.215455
156 BLAKE ST,44.0950455506759,-70.2119698854499
194 PARK ST ALLEY,44.098097,-70.217367
224 PARK ST ALLEY,44.098097,-70.217367
6 KNOX ST,44.0935722666667,-70.2131384
5 KNOX ST,44.0935062666667,-70.2133474
13 KNOX ST,44.0932668,-70.2132002
17 KNOX ST,44.0931470666667,-70.2131266
29 WALNUT ST,44.095479,-70.211502
109 HORTON ST,44.0958599922244,-70.2095961687558
135 HORTON ST,44.0953594669536,-70.209284717212
137 PIERCE ST,44.0946518703704,-70.2109246851852
119 PIERCE ST,44.0949677037037,-70.2111208518519
170 BLAKE ST,44.0945911436207,-70.211686256277
102 BLAKE ST,44.0968482748641,-70.2130798935103
176 PARK ST ALLEY,44.098097,-70.217367
204 PARK ST ALLEY,44.098097,-70.217367
208 PARK ST ALLEY,44.098097,-70.217367
212 PARK ST ALLEY,44.098097,-70.217367
1 KNOX ST,44.093626,-70.213421
16 KNOX ST,44.0932729333333,-70.2129544
153 HORTON ST,44.0950129494585,-70.2090690969124
186 BARTLETT ST,44.09397115625,-70.209212625
167 BARTLETT ST,44.0945167096774,-70.2098008709677
104 PIERCE ST,44.0953114716981,-70.211084754717
93 PIERCE ST,44.0954239074074,-70.2114042037037
180 BLAKE ST,44.0942666321415,-70.2114835572568
195 BLAKE ST,44.0937798649229,-70.2111795087264
196 PARK ST ALLEY,44.098097,-70.217367
20 KNOX ST,44.0931532,-70.2128808
68 BIRCH ST,44.093337,-70.210838
44 BIRCH ST,44.0928996604838,-70.2122119834592
130 BARTLETT ST,44.09562753125,-70.210238125
168 BARTLETT ST,44.0945035625,-70.20954225
144 PIERCE ST,44.0945963773585,-70.2106406037736
115 PIERCE ST,44.0950378888889,-70.2111644444444
107 PIERCE ST,44.0951782592593,-70.2112516296296
9 KNOX ST,44.0933865333333,-70.2132738
23 KNOX ST,44.0929674666667,-70.2130162
158 BARTLETT ST,44.09479934375,-70.209725375
184 BARTLETT ST,44.0940303125,-70.20924925
105 LINCOLN ST,44.0940441538462,-70.220007
24 LINCOLN ST,44.0968584736842,-70.2209524210526
61 LINCOLN ST,44.0953598531785,-70.2205723302678
12 LINCOLN ST,44.0969285789474,-70.2209947368421
65 LINCOLN ST,44.0950119807179,-70.2206063276793
119 LINCOLN ST,44.0939746923077,-70.219965
115 LINCOLN ST,44.0939945384615,-70.219977
81 LINCOLN ST,44.0946740199666,-70.2203915625436
69 LINCOLN ST,44.0949279678632,-70.2205518794656
67 LINCOLN ST,44.0949699742906,-70.2205791035725
128 LINCOLN ST,44.0933604036895,-70.2193343400938
124 LINCOLN ST,44.0934131487436,-70.2193652596083
123 LINCOLN ST,44.0939548461538,-70.219953
90 LINCOLN ST,44.0940645,-70.21977
25 LINCOLN ST,44.0968526315789,-70.2209488947368
49 LINCOLN ST,44.0957594300862,-70.2209061215605
59 LINCOLN ST,44.0953715595354,-70.2205749908035
24 CHESTNUT ST,44.093475375,-70.218334875
19 LINCOLN ST,44.0968876842105,-70.2209700526316
74 LINCOLN ST,44.0947854408578,-70.2202085455126
66 LINCOLN ST,44.0951238011364,-70.220426012987
18 LINCOLN ST,44.0968935263158,-70.2209735789474
44 LINCOLN ST,44.0962249801883,-70.2207514483016
84 LINCOLN ST,44.094356,-70.219947
257 LINCOLN ST,44.0897068,-70.2173112
63 LINCOLN ST,44.0950539871453,-70.2206335517862
68 LINCOLN ST,44.0950396022728,-70.2203710259741
4 CHESTNUT ST,44.093474125,-70.218338625
73 LINCOLN ST,44.0948439550085,-70.2204974312518
14 LINCOLN ST,44.0969168947368,-70.2209876842105
34 LINCOLN ST,44.0968000526316,-70.2209171578947
35 LISBON,44.0314649,-70.1044975
7 HORTON ST,44.0997120904473,-70.2120079613408
51 COLLEGE ST,44.0998560265116,-70.2121922106907
7 BARTLETT ST,44.0999016666667,-70.213193
94 OAK ST,44.1000197431845,-70.2135770598183
35 SABATTUS ST,44.1001761842105,-70.2123611052632
42 BLAKE ST,44.0991238747034,-70.214494018619
3 LINCOLN ST,44.0969811578947,-70.2210264736842
61 LISBON,44.0314649,-70.1044975
53 CLEARWATER AVE,44.091269412602,-70.1907446345166
39 CLEARWATER AVE,44.0914532345337,-70.1905665733862
47 CLEARWATER AVE,44.0913481934299,-70.1906683226035
50 CLEARWATER AVE,44.0912083521152,-70.190518112634
20 LINCOLN ST,44.0968818421053,-70.2209665263158
55 RAILROAD ALLEY,44.0956476734694,-70.2205406122449
13 RAILROAD ALLEY,44.0956588163265,-70.2204724693878
9 RAILROAD ALLEY,44.095659877551,-70.2204659795918
59 GERMAINE ST,44.0963194761905,-70.2022087142857
57 GERMAINE ST,44.096333,-70.2022355
8 HORTON ST,44.0998036232927,-70.2118145852386
94 BATES ST,44.0987569903717,-70.2155770798476
10 COLLEGE ST,44.0995834760282,-70.2125056379691
62 PARK ST ALLEY,44.098097,-70.217367
34 PARK ST ALLEY,44.098097,-70.217367
32 PARK ST ALLEY,44.098097,-70.217367
87 GERMAINE ST,44.0961301428571,-70.2018337142857
51 GERMAINE ST,44.0963735714286,-70.2023158571429
18 GERMAINE ST,44.096712372093,-70.2025885116279
17 GERMAINE ST,44.0966034761905,-70.2027712142857
35 RAILROAD ALLEY,44.0956529795918,-70.2205081632653
25 CLEARWATER AVE,44.0916364835288,-70.1903879276917
33 CLEARWATER AVE,44.0915320153615,-70.1904902614731
54 CLEARWATER AVE,44.09115415572,-70.1905697137089
9 HORTON ST,44.099646787263,-70.2119659484544
8 JONES AVE,44.0772771735368,-70.1892177139665
22 BARTLETT ST,44.0990329145062,-70.212362338155
13 BARTLETT ST,44.0997243333333,-70.21307
67 OAK ST,44.099269,-70.2138925
29 SABATTUS ST,44.1001956052632,-70.2124956315789
22 BLAKE ST,44.0997283494808,-70.2148626666633
12 CLEARWATER AVE,44.0917196125751,-70.1900241765836
41 LISBON,44.0314649,-70.1044975
28 BATES ST,44.1014796041667,-70.2171858541667
82 OAK ST,44.099464,-70.213998
18 BLAKE ST,44.099847761847,-70.2149388088182
16 BLAKE ST,44.0999074680302,-70.2149768798956
56 PARK ST ALLEY,44.098097,-70.217367
42 PARK ST ALLEY,44.098097,-70.217367
53 PARK ST ALLEY,44.098097,-70.217367
207 PARK ST ALLEY,44.0926100309701,-70.2135779345951
208 PARK ST ALLEY,44.0926024901263,-70.2135734011647
5 KNOX ST,44.0935062666667,-70.2133474
4 KNOX ST,44.0936321333333,-70.2131752
65 KNOX ST,44.09160664,-70.21216672
3 RIVER ST,44.090877715703,-70.2194270550541
23 RIVER ST,44.0906255997673,-70.2193998173155
199 PARK ST ALLEY,44.092670357721,-70.2136142020382
195 PARK ST ALLEY,44.0927005210964,-70.2136323357598
190 PARK ST ALLEY,44.0927382253157,-70.2136550029117
194 PARK ST ALLEY,44.0927080619403,-70.2136368691901
196 PARK ST ALLEY,44.0926929802526,-70.2136278023294
244 PARK ST ALLEY,44.0918833040663,-70.2131258447448
254 PARK ST ALLEY,44.0916995237156,-70.2130105619932
260 PARK ST ALLEY,44.0915892555051,-70.2129413923422
278 PARK ST ALLEY,44.0912584508739,-70.2127338833892
271 PARK ST ALLEY,44.0912229990338,-70.2129642194232
245 PARK ST ALLEY,44.091593737631,-70.213196388587
241 PARK ST ALLEY,44.0916507743382,-70.2132321069198
233 PARK ST ALLEY,44.0917648477527,-70.2133035435856
237 PARK ST ALLEY,44.0917078110455,-70.2132678252527
2 BIRCH ST,44.092492,-70.213446
27 BIRCH ST,44.0926527142857,-70.2129567142857
24 BIRCH ST,44.0926334285714,-70.2130154285714
48 MAPLEWOOD RD,44.0859342509392,-70.1722227490466
45 MAPLEWOOD RD,44.085830403531,-70.1720391556876
33 MAPLEWOOD RD,44.0856825110143,-70.1721809089132
37 KNOX ST,44.09239008,-70.21265784
51 KNOX ST,44.09199836,-70.21241228
57 KNOX ST,44.09183048,-70.21230704
63 KNOX ST,44.0916626,-70.2122018
79 KNOX ST,44.09121492,-70.21192116
53 MAPLEWOOD RD,44.0859266304278,-70.1719422025501
57 ROSEDALE,44.0804525444697,-70.2027572551612
38 ROSEDALE,44.0802691438758,-70.2032085794666
104 PROSPECT AV,44.0810044371542,-70.201330538895
108 ROSEDALE,44.0819137862801,-70.2016491460194
73 PROSPECT AV,44.08032,-70.201707
304 LOCUST,44.0895696,-70.2137355