X,Y
7.1795,11.851
14.359,17.6202
19.4872,19.1587
22.5641,23.3894
29.2308,31.0817
33.0769,36.851
35.3846,41.0817
44.8718,48.3894
47.4359,50.3125
53.3333,57.2356
57.4359,65.3125
60.7692,70.3125
63.5897,72.6202
67.6923,78.3894
73.8462,84.1587
81.0256,88.0048
87.6923,93.774
91.0256,97.6202
99.4872,108.3894
