X,Y
3.8462,3.0048
4.6154,6.851
5.8974,12.6202
7.1795,20.6971
9.2308,26.851
11.0256,33.0048
12.0513,36.851
15.1282,44.1587
18.2051,49.9279
21.2821,57.6202
24.1026,60.3125
26.4103,64.5433
31.7949,68.3894
36.6667,72.2356
41.2821,75.3125
48.2051,76.851
52.5641,77.6202
56.6667,77.6202
63.5897,76.851
65.1282,74.5433
67.4359,73.0048
71.5385,69.5433
75.3846,65.3125
78.2051,58.0048
79.4872,55.3125
81.0256,50.6971
82.8205,44.1587
86.1538,38.3894
87.6923,31.4663
90,22.6202
92.5641,16.851
94.6154,11.851
95.8974,4.5433
